{

    ".include" : "/unix/muons/users/bgayther/mu3e/run/detector.json",
    ".include" : "/unix/muons/users/bgayther/mu3e/run/digi.json",

    "digi" : { "generators" : [
        { "type" : "beam", "rate" : 2.466e8, "#" : "mu+ beam" },
        { "type" : "beam", "particle" : "mu+/eee", "#" : "signal decay" }
    ]}
}